346,692,693,true,15
347,694,695,true,13
348,696,697,true,11
349,698,699,true,15
350,700,701,true,13
351,702,703,true,11
352,704,705,true,11
353,706,707,true,15
354,708,709,true,11
355,710,711,true,15
356,712,713,true,14
357,714,715,true,12
358,716,717,true,12
359,718,719,true,15
360,720,721,true,14
361,722,723,true,12
362,724,725,true,14
363,726,727,true,11
364,728,729,true,13
365,730,731,true,15
366,732,733,true,15
367,734,735,true,14
368,736,737,true,15
369,738,739,true,13
370,740,741,true,11
371,742,743,true,13
372,744,745,true,15
373,746,747,true,14
374,748,749,true,11
375,750,751,true,15
376,752,753,true,12
377,754,755,true,11
378,756,757,true,12
379,758,759,true,15
380,760,761,true,12
381,762,763,true,15
382,764,765,true,12
383,766,767,true,14
384,768,769,true,12
385,770,771,true,11
386,772,773,true,14
387,774,775,true,13
388,776,777,true,14
389,778,779,true,13
390,780,781,true,13
391,782,783,true,11
392,784,785,true,14
393,786,787,true,13
394,788,789,true,13
395,790,791,true,12
396,792,793,true,13
397,794,795,true,12
398,796,797,true,14
399,798,799,true,13
400,800,801,true,12
401,802,803,true,14
402,804,805,true,12
403,806,807,true,15
404,808,809,true,13
405,810,811,true,14
406,812,813,true,15
407,814,815,true,13
408,816,817,true,15
409,818,819,true,14
410,820,821,true,14
411,822,823,true,11
412,824,825,true,15
413,826,827,true,12
414,828,829,true,14
415,830,831,true,12
416,832,833,true,14
417,834,835,true,13
418,836,837,true,12
419,838,839,true,14
420,840,841,true,12
421,842,843,true,12
422,844,845,true,15
423,846,847,true,13
424,848,849,true,12
425,850,851,true,12
426,852,853,true,11
427,854,855,true,11
428,856,857,true,14
429,858,859,true,11
430,860,861,true,14
431,862,863,true,11
432,864,865,true,11
433,866,867,true,13
434,868,869,true,11
435,870,871,true,12
436,872,873,true,13
437,874,875,true,15
438,876,877,true,13
439,878,879,true,11
440,880,881,true,11
441,882,883,true,15
442,884,885,true,13
443,886,887,true,15
444,888,889,true,14
445,890,891,true,11